WDI Data Analysis Example
…
wdi_data$`Country Code`[1:2]

## [1] "ARB" "ARB"

However, if you are using [[ (and providing a character vector of variable names) you don’t need backticks,

wdi_data[["Country Code"]][1:2]

## [1] "ARB" "ARB"

WDI_Description.csv is unusual.

read_csv(wdi("Description"))

## # A tibble: 88 × 1
##                                                 `World Development Indicators`
##                                                                          <chr>
## 1                                                               The World Bank
## 2                                                              3 January, 2017
## 3  World Development Indicators (WDI) is the primary World Bank database for d
## 4  See other worksheets in this Excel file for a list of series changes since 
## 5  3 January, 2017: A minor update was processed to correct additional governm
## 6  28 December, 2016: A minor update was processed to revise historical data f
## 7  21 December, 2016: A minor update was processed to correct government finan
## 8  16 December, 2016: This release features new external debt data from the In
## 9  17 November, 2016: Data have been updated for Doing Business indicators, an
## 10 14 October, 2016: An update was processed for national poverty and child mo
## # ... with 78 more rows
…
nrow(WDI$series)

## [1] 1452

indicators in the WDI. I could search for male and female online, then manually put together a list, probably in a CSV file with the indicator code for the male and female variables. Again, that’s a lot of work, and I’m not being paid by the hour.

The purpose of this exercise is not to produce good measures of gender inequality, but to compute on data about the series themselves to find and match male and female variables to create the sort of dataset that could be used to construct such an index.

The plan is to see whether male and female variables have regular codes or names. If there is some pattern, I can select the matching male and female variables. Let’s look at variables with “female” in the description. I use the regexp pattern "\\bfemale\\b", where \b means the boundary of a word (space, punctuation, etc). If I didn’t do that it could pick up words with female as part of the name; I can’t think of any, but I’m paranoid.

WDI$series %>%
  filter(str_detect(`Indicator Name`, "\\bfemale\\b")) %>% select(`Indicator Name`, `Series Code`)

## # A tibble: 109 × 2
##                                                           `Indicator Name`
##                                                                      <chr>
## 1                               Firms with female top manager (% of firms)
## 2                Firms with female participation in ownership (% of firms)
## 3       Cost of business start-up procedures, female (% of GNI per capita)
## 4                         Time required to start a business, female (days)
## 5              Start-up procedures to register a business, female (number)
## 6                    Literacy rate, youth female (% of females ages 15-24)
## 7             Literacy rate, adult female (% of females ages 15 and above)
## 8                          School enrollment, preprimary, female (% gross)
## 9  Trained teachers in preprimary education, female (% of female teachers)
## 10               Primary completion rate, female (% of relevant age group)
## # ... with 99 more rows, and 1 more variables: `Series Code` <chr>
…
str_detect("Firms with female top manager (% of firms)", "male")

## [1] TRUE

str_detect("Firms with female top manager (% of firms)", "\\bmale\\b")

## [1] FALSE

So let’s search for the male variables,

WDI$series %>%
  filter(str_detect(`Indicator Name`, "\\bmale\\b")) %>%
  select(`Series Code`, `Indicator Name`)

## # A tibble: 95 × 2
##           `Series Code`
##                   <chr>
## 1  IC.REG.COST.PC.MA.ZS
## 2        IC.REG.DURS.MA
## 3        IC.REG.PROC.MA
## 4  SE.ADT.1524.LT.MA.ZS
## 5     SE.ADT.LITR.MA.ZS
## 6        SE.PRE.ENRR.MA
## 7     SE.PRE.TCAQ.MA.ZS
## 8     SE.PRM.CMPT.MA.ZS
## 9     SE.PRM.CUAT.MA.ZS
## 10       SE.PRM.ENRR.MA
## # ... with 85 more rows, and 1 more variables: `Indicator Name` <chr>
…
Now, we can take the long WDI with columns country, year, series, value, and extract only those series related to gender. Then create separate columns for male and female values. And calculate the difference in values between female and male indicators.

left_join(gender_series_codes, wdi_data_cst,
          by = c("Series Code" = "Indicator Code")) %>%
  select(-`Series Code`) %>%
  spread(gender, value) %>%
  mutate(gender_diff = female - male) %>%
  filter(gender_diff != 0)

## # A tibble: 236,354 × 7
##                  series `Country Name` `Country Code`  year female  male
##                   <chr>          <chr>          <chr> <int>  <dbl> <dbl>
## 1  IC.REG.COST.PC.__.ZS          Benin            BEN  2003  148.1 148.0
## 2  IC.REG.COST.PC.__.ZS          Benin            BEN  2004  173.6 173.5
## 3  IC.REG.COST.PC.__.ZS          Benin            BEN  2006  211.1 211.0
## 4  IC.REG.COST.PC.__.ZS          Benin            BEN  2007  197.2 197.1
## 5  IC.REG.COST.PC.__.ZS          Benin            BEN  2008  198.2 198.1
## 6  IC.REG.COST.PC.__.ZS          Benin            BEN  2009  157.4 157.3
## 7  IC.REG.COST.PC.__.ZS          Benin            BEN  2010  154.4 154.3
## 8  IC.REG.COST.PC.__.ZS          Benin            BEN  2012  126.9 126.8
## 9  IC.REG.COST.PC.__.ZS          Benin            BEN  2013  122.8 122.7
## 10 IC.REG.COST.PC.__.ZS          Benin            BEN  2014   55.9  55.8
## # ... with 236,344 more rows, and 1 more variables: gender_diff <dbl>
…
The top 10 countries with most missing economic values:

missingness %>%
  filter(main_topic == "Economic Policy & Debt",
         year == 2012) %>%
  top_n(10, desc(prop_missing)) %>%
  arrange(prop_missing)

## Source: local data frame [264 x 5]
## Groups: Country Code, main_topic [264]
## 
##    `Country Code`             main_topic  year prop_missing n_indicators
##             <chr>                  <chr> <chr>        <dbl>        <int>
## 1             IDN Economic Policy & Debt  2012   0.04655870          494
## 2             PHL Economic Policy & Debt  2012   0.04858300          494
## 3             IND Economic Policy & Debt  2012   0.05060729          494
## 4             TUR Economic Policy & Debt  2012   0.05263158          494
## 5             MEX Economic Policy & Debt  2012   0.05668016          494
## 6             DOM Economic Policy & Debt  2012   0.05870445          494
## 7             BRA Economic Policy & Debt  2012   0.06477733          494
## 8             VNM Economic Policy & Debt  2012   0.06477733          494
## 9             JOR Economic Policy & Debt  2012   0.06882591          494
## 10            ECU Economic Policy & Debt  2012   0.07085020          494
## # ... with 254 more rows

and least missing

missingness %>%
  filter(main_topic == "Economic Policy & Debt",
         year == 2012) %>%
  top_n(10, desc(prop_missing)) %>%
  arrange(prop_missing)

## Source: local data frame [264 x 5]
## Groups: Country Code, main_topic [264]
## 
##    `Country Code`             main_topic  year prop_missing n_indicators
##             <chr>                  <chr> <chr>        <dbl>        <int>
## 1             IDN Economic Policy & Debt  2012   0.04655870          494
## 2             PHL Economic Policy & Debt  2012   0.04858300          494
## 3             IND Economic Policy & Debt  2012   0.05060729          494
## 4             TUR Economic Policy & Debt  2012   0.05263158          494
## 5             MEX Economic Policy & Debt  2012   0.05668016          494
## 6             DOM Economic Policy & Debt  2012   0.05870445          494
## 7             BRA Economic Policy & Debt  2012   0.06477733          494
## 8             VNM Economic Policy & Debt  2012   0.06477733          494
## 9             JOR Economic Policy & Debt  2012   0.06882591          494
## 10            ECU Economic Policy & Debt  2012   0.07085020          494
## # ... with 254 more rows
…
## Warning: 4015 parsing failures.
##  row           col               expected           actual
## 1014 v2clrgwkch_15 no trailing characters .142857149243355
## 1015 v2clrgwkch_15 no trailing characters .142857149243355
## 1016 v2clrgwkch_15 no trailing characters .142857149243355
## 1017 v2clrgwkch_15 no trailing characters .142857149243355
## 1018 v2clrgwkch_15 no trailing characters .142857149243355
## .... ............. ...................... ................
## See problems(...) for more details.

with read_csv there are a lot of parsing errors. The trailing characters is likely because the

problems(vdem)

## # A tibble: 4,015 × 4
##      row           col               expected           actual
##    <int>         <chr>                  <chr>            <chr>
## 1   1014 v2clrgwkch_15 no trailing characters .142857149243355
## 2   1015 v2clrgwkch_15 no trailing characters .142857149243355
## 3   1016 v2clrgwkch_15 no trailing characters .142857149243355
## 4   1017 v2clrgwkch_15 no trailing characters .142857149243355
## 5   1018 v2clrgwkch_15 no trailing characters .142857149243355
## 6   1019 v2clrgwkch_15 no trailing characters .142857149243355
## 7   1020 v2clrgwkch_15 no trailing characters .142857149243355
## 8   1021 v2clrgwkch_15 no trailing characters .142857149243355
## 9   1022 v2clrgwkch_15 no trailing characters .111111111938953
## 10  1023 v2clrgwkch_15 no trailing characters .111111111938953
## # ... with 4,005 more rows
…
